…
Alright - so here we are! Finally getting into the swing of things and getting some neat outputs. You might have noticed that I left a little sneak peak at what it takes to make graphs in R in the previous section. It might have all looked a bit strange but there really is very little to it all. R has two main plotting methods - there is plot() which comes as a basic funciton in R. And then there is ggplot2 - this is a massive improvement over plot(). It stands for the grammar of graphics which allows you to build almost any kind of graph you can imagine! Right, so now that we have all that out the way we will need to load the tidyverse again:

library(tidyverse)

And if you get an error saying that “there is no package called ‘tidyverse’” you’ll need to go:

install.packages("tidyverse")
library(tidyverse)

The package contained within tidyverse is ggplot2. Now that the formalities are out the way let’s get cracking. We’ll be using a pretty neat data set which is called eco_foot (ecological footprint) which contains the ecological impact that 162 countries have on the environment:

eco_foot

## # A tibble: 162 x 20
##    country  region       pop   hdi gdpc  cropf grazf forestf carbonf fishf
##    <chr>    <chr>      <dbl> <dbl> <chr> <dbl> <dbl>   <dbl>   <dbl> <dbl>
##  1 Afghani~ Middle Ea~ 29.8   0.46 $614~  0.3   0.2    0.08     0.18  0   
##  2 Albania  Northern/~  3.16  0.73 $4,5~  0.78  0.22   0.25     0.87  0.02
##  3 Algeria  Africa     38.5   0.73 $5,4~  0.6   0.16   0.17     1.14  0.01
##  4 Angola   Africa     20.8   0.52 $4,6~  0.33  0.15   0.12     0.2   0.09
##  5 Argenti~ Latin Ame~ 41.1   0.83 $13,~  0.78  0.79   0.290    1.08  0.1 
##  6 Armenia  Middle Ea~  2.97  0.73 $3,4~  0.74  0.18   0.34     0.89  0.01
##  7 Austral~ Asia-Paci~ 23.0   0.93 $66,~  2.68  0.63   0.89     4.85  0.11
##  8 Austria  European ~  8.46  0.88 $51,~  0.82  0.27   0.63     4.14  0.06
##  9 Azerbai~ Middle Ea~  9.31  0.75 $7,1~  0.66  0.22   0.11     1.25  0.01
## 10 Bahamas  Latin Ame~  0.37  0.78 $22,~  0.97  1.05   0.19     4.46  0.14
## # ... with 152 more rows, and 10 more variables: tef <dbl>, crop <dbl>,
## #   graz <dbl>, forest <dbl>, fish <dbl>, urban <dbl>, tbc <dbl>,
## #   bcdr <dbl>, er <dbl>, cr <dbl>
…
