Let’s wrangle some data!
…
Collapse many values down to a single summary (summarise()).

And each of these functions can be used under group_by() which combines unique combinations of selected columns. The above functions are then applied to those groups. As each of these functions carry out ‘activities’ we can call them ‘verbs’. They all work in the same way:

data.frame <- verb(data.frame, ... what to do with data.frame)

The verbs

Filtering with filter()

filter() allows you to pull out rows or observations based on requested values. The first arguement is the data.frame we want to filter observations from ad the subsequent arguments are our filtering criteria. Using flights we can look for all the flights that left New York on the 25th of March with:

filter(flights, month == 3, day == 25)

## # A tibble: 978 x 19
##     year month   day dep_time sched_dep_time dep_delay arr_time sched_arr_time
##    <int> <int> <int>    <int>          <int>     <dbl>    <int>          <int>
##  1  2013     3    25       13           2359        14      354            338
##  2  2013     3    25       27           2005       262      313           2330
##  3  2013     3    25      457            500        -3      647            648
##  4  2013     3    25      511            515        -4      809            814
##  5  2013     3    25      534            530         4      814            827
##  6  2013     3    25      540            540         0      844            850
##  7  2013     3    25      542            545        -3      914            923
##  8  2013     3    25      549            600       -11      855            925
##  9  2013     3    25      551            600        -9      702            715
## 10  2013     3    25      551            600        -9      657            733
## # ... with 968 more rows, and 11 more variables: arr_delay <dbl>,
## #   carrier <chr>, flight <int>, tailnum <chr>, origin <chr>, dest <chr>,
## #   air_time <dbl>, distance <dbl>, hour <dbl>, minute <dbl>, time_hour <dttm>
…
< greater than

<= greater than or equal to

!= not equal to

& and

| or

We can use these last two operators to join several logical comparrisons together. For istance:

filter(flights, month == 11 | month == 12)

## # A tibble: 55,403 x 19
##     year month   day dep_time sched_dep_time dep_delay arr_time sched_arr_time
##    <int> <int> <int>    <int>          <int>     <dbl>    <int>          <int>
##  1  2013    11     1        5           2359         6      352            345
##  2  2013    11     1       35           2250       105      123           2356
##  3  2013    11     1      455            500        -5      641            651
##  4  2013    11     1      539            545        -6      856            827
##  5  2013    11     1      542            545        -3      831            855
##  6  2013    11     1      549            600       -11      912            923
##  7  2013    11     1      550            600       -10      705            659
##  8  2013    11     1      554            600        -6      659            701
##  9  2013    11     1      554            600        -6      826            827
## 10  2013    11     1      554            600        -6      749            751
## # ... with 55,393 more rows, and 11 more variables: arr_delay <dbl>,
## #   carrier <chr>, flight <int>, tailnum <chr>, origin <chr>, dest <chr>,
## #   air_time <dbl>, distance <dbl>, hour <dbl>, minute <dbl>, time_hour <dttm>
…
filter(flights, month == 11 & month == 12)

## # A tibble: 0 x 19
## # ... with 19 variables: year <int>, month <int>, day <int>, dep_time <int>,
## #   sched_dep_time <int>, dep_delay <dbl>, arr_time <int>,
## #   sched_arr_time <int>, arr_delay <dbl>, carrier <chr>, flight <int>,
## #   tailnum <chr>, origin <chr>, dest <chr>, air_time <dbl>, distance <dbl>,
## #   hour <dbl>, minute <dbl>, time_hour <dttm>

The above query, however, produces nothing because a single flight cannot depart in two months. Sometimes you might import data which contains NA (“not applicable”) or NAN (“not a number”) values. These will almost always through out your analyses and so dealing with them from the start is incredibly important. The best way to handle these data is to remove them from the data set. You can do this with is.na():

filter(flights, !is.na(dep_time ))

## # A tibble: 328,521 x 19
##     year month   day dep_time sched_dep_time dep_delay arr_time sched_arr_time
##    <int> <int> <int>    <int>          <int>     <dbl>    <int>          <int>
##  1  2013     1     1      517            515         2      830            819
##  2  2013     1     1      533            529         4      850            830
##  3  2013     1     1      542            540         2      923            850
##  4  2013     1     1      544            545        -1     1004           1022
##  5  2013     1     1      554            600        -6      812            837
##  6  2013     1     1      554            558        -4      740            728
##  7  2013     1     1      555            600        -5      913            854
##  8  2013     1     1      557            600        -3      709            723
##  9  2013     1     1      557            600        -3      838            846
## 10  2013     1     1      558            600        -2      753            745
## # ... with 328,511 more rows, and 11 more variables: arr_delay <dbl>,
## #   carrier <chr>, flight <int>, tailnum <chr>, origin <chr>, dest <chr>,
## #   air_time <dbl>, distance <dbl>, hour <dbl>, minute <dbl>, time_hour <dttm>
…
Sort flights to find the fastest flights.

Answer arrange(flights, distance/air_time)

Order by which flights flew the greatest distance.

Answer arrange(flights, distance)

Selectively selecting columns with select()

We might not always have a use for this function but we will go over it quickly. Suppose you have a data.frame with only a few columns that you want out of the whole thing - like this flights data set. Perhaps we are only interested in which airline had the greatest delays. We could narrow our data.frame down by calling:

select(flights, dep_delay, arr_delay, carrier)

## # A tibble: 336,776 x 3
##    dep_delay arr_delay carrier
##        <dbl>     <dbl> <chr>  
##  1         2        11 UA     
##  2         4        20 UA     
##  3         2        33 AA     
##  4        -1       -18 B6     
##  5        -6       -25 DL     
##  6        -4        12 UA     
##  7        -5        19 B6     
##  8        -3       -14 EV     
##  9        -3        -8 B6     
## 10        -2         8 AA     
## # ... with 336,766 more rows

## by ordering our columns we can quickly reorder our new data.frame:
select(flights, carrier, dep_delay, arr_delay)

## # A tibble: 336,776 x 3
##    carrier dep_delay arr_delay
##    <chr>       <dbl>     <dbl>
##  1 UA              2        11
##  2 UA              4        20
##  3 AA              2        33
##  4 B6             -1       -18
##  5 DL             -6       -25
##  6 UA             -4        12
##  7 B6             -5        19
##  8 EV             -3       -14
##  9 B6             -3        -8
## 10 AA             -2         8
## # ... with 336,766 more rows

## some other useful functions of select():
select(flights, year:dep_time) ## selects all columns between and including the requested

## # A tibble: 336,776 x 4
##     year month   day dep_time
##    <int> <int> <int>    <int>
##  1  2013     1     1      517
##  2  2013     1     1      533
##  3  2013     1     1      542
##  4  2013     1     1      544
##  5  2013     1     1      554
##  6  2013     1     1      554
##  7  2013     1     1      555
##  8  2013     1     1      557
##  9  2013     1     1      557
## 10  2013     1     1      558
## # ... with 336,766 more rows

select(flights, -(carrier:time_hour)) ## returns all but those mentioned in the query

## # A tibble: 336,776 x 9
##     year month   day dep_time sched_dep_time dep_delay arr_time sched_arr_time
##    <int> <int> <int>    <int>          <int>     <dbl>    <int>          <int>
##  1  2013     1     1      517            515         2      830            819
##  2  2013     1     1      533            529         4      850            830
##  3  2013     1     1      542            540         2      923            850
##  4  2013     1     1      544            545        -1     1004           1022
##  5  2013     1     1      554            600        -6      812            837
##  6  2013     1     1      554            558        -4      740            728
##  7  2013     1     1      555            600        -5      913            854
##  8  2013     1     1      557            600        -3      709            723
##  9  2013     1     1      557            600        -3      838            846
## 10  2013     1     1      558            600        -2      753            745
## # ... with 336,766 more rows, and 1 more variable: arr_delay <dbl>

What I have found is select()’s most useful function is its simple renaming ability:

select(flights, tail.num = tailnum) ## returns the selected column (tail_num) and gives it a new name (tail.num). This is great but only returns the selected columns. rename() is a function that returns all columns and applies the requested renaming:

## # A tibble: 336,776 x 1
##    tail.num
##    <chr>   
##  1 N14228  
##  2 N24211  
##  3 N619AA  
##  4 N804JB  
##  5 N668DN  
##  6 N39463  
##  7 N516JB  
##  8 N829AS  
##  9 N593JB  
## 10 N3ALAA  
## # ... with 336,766 more rows

rename(flights, tail.num = tailnum)

## # A tibble: 336,776 x 19
##     year month   day dep_time sched_dep_time dep_delay arr_time sched_arr_time
##    <int> <int> <int>    <int>          <int>     <dbl>    <int>          <int>
##  1  2013     1     1      517            515         2      830            819
##  2  2013     1     1      533            529         4      850            830
##  3  2013     1     1      542            540         2      923            850
##  4  2013     1     1      544            545        -1     1004           1022
##  5  2013     1     1      554            600        -6      812            837
##  6  2013     1     1      554            558        -4      740            728
##  7  2013     1     1      555            600        -5      913            854
##  8  2013     1     1      557            600        -3      709            723
##  9  2013     1     1      557            600        -3      838            846
## 10  2013     1     1      558            600        -2      753            745
## # ... with 336,766 more rows, and 11 more variables: arr_delay <dbl>,
## #   carrier <chr>, flight <int>, tail.num <chr>, origin <chr>, dest <chr>,
## #   air_time <dbl>, distance <dbl>, hour <dbl>, minute <dbl>, time_hour <dttm>

One more useful function combination is select(... , everything()) which brings selected columns to the beginning of the data.frame and then places everthing else subsequent to those:

select(flights, time_hour, air_time, everything()) 

## # A tibble: 336,776 x 19
##    time_hour           air_time  year month   day dep_time sched_dep_time
##    <dttm>                 <dbl> <int> <int> <int>    <int>          <int>
##  1 2013-01-01 05:00:00      227  2013     1     1      517            515
##  2 2013-01-01 05:00:00      227  2013     1     1      533            529
##  3 2013-01-01 05:00:00      160  2013     1     1      542            540
##  4 2013-01-01 05:00:00      183  2013     1     1      544            545
##  5 2013-01-01 06:00:00      116  2013     1     1      554            600
##  6 2013-01-01 05:00:00      150  2013     1     1      554            558
##  7 2013-01-01 06:00:00      158  2013     1     1      555            600
##  8 2013-01-01 06:00:00       53  2013     1     1      557            600
##  9 2013-01-01 06:00:00      140  2013     1     1      557            600
## 10 2013-01-01 06:00:00      138  2013     1     1      558            600
## # ... with 336,766 more rows, and 12 more variables: dep_delay <dbl>,
## #   arr_time <int>, sched_arr_time <int>, arr_delay <dbl>, carrier <chr>,
## #   flight <int>, tailnum <chr>, origin <chr>, dest <chr>, distance <dbl>,
## #   hour <dbl>, minute <dbl>
…
Answer HINT: have a look at the arguments that contains() (and other select_helpers type functions) can select.

Mutating isn’t just for genetics

mutate() is a pretty neat funcion that can really speed up generating new variables from columns already present in your data.frame. It works in a similar way to everything else we’ve used so far. The basic call is mutate(data.frame, new.column.name = column.3 * column.5). The new column always gets attached to your data.frame at the end so it is sometimes useful to select relavant columns first and then mutate those:

flights.sml <- select(flights, 
                      year:day, 
                      ends_with("delay"), 
                      distance, air_time)
mutate(flights.sml, 
       gain = dep_delay - arr_delay, 
       speed = distance / air_time * 60)

## # A tibble: 336,776 x 9
##     year month   day dep_delay arr_delay distance air_time  gain speed
##    <int> <int> <int>     <dbl>     <dbl>    <dbl>    <dbl> <dbl> <dbl>
##  1  2013     1     1         2        11     1400      227    -9  370.
##  2  2013     1     1         4        20     1416      227   -16  374.
##  3  2013     1     1         2        33     1089      160   -31  408.
##  4  2013     1     1        -1       -18     1576      183    17  517.
##  5  2013     1     1        -6       -25      762      116    19  394.
##  6  2013     1     1        -4        12      719      150   -16  288.
##  7  2013     1     1        -5        19     1065      158   -24  404.
##  8  2013     1     1        -3       -14      229       53    11  259.
##  9  2013     1     1        -3        -8      944      140     5  405.
## 10  2013     1     1        -2         8      733      138   -10  319.
## # ... with 336,766 more rows

##Note how I have reformatted these commands - that makes it much easier to see the individual arguments of each function.

And you can even refer to columns that you have just made within the same mutate() call:

## # A tibble: 336,776 x 10
##     year month   day dep_delay arr_delay distance air_time  gain hours
##    <int> <int> <int>     <dbl>     <dbl>    <dbl>    <dbl> <dbl> <dbl>
##  1  2013     1     1         2        11     1400      227    -9 3.78 
##  2  2013     1     1         4        20     1416      227   -16 3.78 
##  3  2013     1     1         2        33     1089      160   -31 2.67 
##  4  2013     1     1        -1       -18     1576      183    17 3.05 
##  5  2013     1     1        -6       -25      762      116    19 1.93 
##  6  2013     1     1        -4        12      719      150   -16 2.5  
##  7  2013     1     1        -5        19     1065      158   -24 2.63 
##  8  2013     1     1        -3       -14      229       53    11 0.883
##  9  2013     1     1        -3        -8      944      140     5 2.33 
## 10  2013     1     1        -2         8      733      138   -10 2.3  
## # ... with 336,766 more rows, and 1 more variable: gain_per_hour <dbl>

And then suppose only the new variables that you have made are useful to you then transmute() is what you are looking for:

transmute(flights,
            gain = dep_delay - arr_delay, 
            hours = air_time / 60, 
            gain_per_hour = gain / hours)

## # A tibble: 336,776 x 3
##     gain hours gain_per_hour
##    <dbl> <dbl>         <dbl>
##  1    -9 3.78          -2.38
##  2   -16 3.78          -4.23
##  3   -31 2.67         -11.6 
##  4    17 3.05           5.57
##  5    19 1.93           9.83
##  6   -16 2.5           -6.4 
##  7   -24 2.63          -9.11
##  8    11 0.883         12.5 
##  9     5 2.33           2.14
## 10   -10 2.3           -4.35
## # ... with 336,766 more rows

You can use all sorts of functions together with mutate to create new variables quickly, efficiently, and most importantly, without ever needing Excel again! To quickly calculate the proportion of something you could do something / sum (something) for instance. Or to find the differece from the mean you could do:

mutate(flights, mean.diff.arr_delay = arr_delay - mean(arr_delay))

## # A tibble: 336,776 x 20
##     year month   day dep_time sched_dep_time dep_delay arr_time sched_arr_time
##    <int> <int> <int>    <int>          <int>     <dbl>    <int>          <int>
##  1  2013     1     1      517            515         2      830            819
##  2  2013     1     1      533            529         4      850            830
##  3  2013     1     1      542            540         2      923            850
##  4  2013     1     1      544            545        -1     1004           1022
##  5  2013     1     1      554            600        -6      812            837
##  6  2013     1     1      554            558        -4      740            728
##  7  2013     1     1      555            600        -5      913            854
##  8  2013     1     1      557            600        -3      709            723
##  9  2013     1     1      557            600        -3      838            846
## 10  2013     1     1      558            600        -2      753            745
## # ... with 336,766 more rows, and 12 more variables: arr_delay <dbl>,
## #   carrier <chr>, flight <int>, tailnum <chr>, origin <chr>, dest <chr>,
## #   air_time <dbl>, distance <dbl>, hour <dbl>, minute <dbl>, time_hour <dttm>,
## #   mean.diff.arr_delay <dbl>
…
This is the last main dplyr function we will look at in this workshop. At first you might think it’s pretty lame:

summarise(flights, delay = mean(dep_delay, na.rm = TRUE)) ## na.rm is a boolean argument addressing what to do with, well, NA's. rm() is a base R function which removes any object from your environment.

## # A tibble: 1 x 1
##   delay
##   <dbl>
## 1  12.6

But wait until you use it with group_by(). This function creates new mini datasets within your data.frame which summarise then acts on:

by.day <- group_by(flights, year, month, day)
summarise(by.day, delay = mean(dep_delay, na.rm = TRUE))

## # A tibble: 365 x 4
## # Groups:   year, month [12]
##     year month   day delay
##    <int> <int> <int> <dbl>
##  1  2013     1     1 11.5 
##  2  2013     1     2 13.9 
##  3  2013     1     3 11.0 
##  4  2013     1     4  8.95
##  5  2013     1     5  5.73
##  6  2013     1     6  7.15
##  7  2013     1     7  5.42
##  8  2013     1     8  2.55
##  9  2013     1     9  2.28
## 10  2013     1    10  2.84
## # ... with 355 more rows
…
